(['/home/liudong/workspace/python/guazi/importAsset_liudong.py'],
 ['/home/liudong/workspace/python', '/home/liudong/workspace/python/guazi'],
 ['codecs'],
 [],
 [],
 [],
 False,
 False,
 '2.7.12 (default, Nov 12 2018, 14:36:49) \n[GCC 5.4.0 20160609]',
 [('pyi_rth_pkgres',
   '/home/liudong/.local/lib/python2.7/site-packages/PyInstaller/loader/rthooks/pyi_rth_pkgres.py',
   'PYSOURCE'),
  ('importAsset_liudong',
   '/home/liudong/workspace/python/guazi/importAsset_liudong.py',
   'PYSOURCE')],
 [('pkg_resources',
   '/home/liudong/.local/lib/python2.7/site-packages/pkg_resources/__init__.py',
   'PYMODULE'),
  ('pkg_resources._vendor.packaging.version',
   '/home/liudong/.local/lib/python2.7/site-packages/pkg_resources/_vendor/packaging/version.py',
   'PYMODULE'),
  ('pkg_resources._vendor.packaging.markers',
   '/home/liudong/.local/lib/python2.7/site-packages/pkg_resources/_vendor/packaging/markers.py',
   'PYMODULE'),
  ('pkg_resources._vendor.pyparsing',
   '/home/liudong/.local/lib/python2.7/site-packages/pkg_resources/_vendor/pyparsing.py',
   'PYMODULE'),
  ('pdb', '/usr/lib/python2.7/pdb.py', 'PYMODULE'),
  ('shlex', '/usr/lib/python2.7/shlex.py', 'PYMODULE'),
  ('StringIO', '/usr/lib/python2.7/StringIO.py', 'PYMODULE'),
  ('copy_reg', '/usr/lib/python2.7/copy_reg.py', 'PYMODULE'),
  ('repr', '/usr/lib/python2.7/repr.py', 'PYMODULE'),
  ('bdb', '/usr/lib/python2.7/bdb.py', 'PYMODULE'),
  ('fnmatch', '/usr/lib/python2.7/fnmatch.py', 'PYMODULE'),
  ('posixpath', '/usr/lib/python2.7/posixpath.py', 'PYMODULE'),
  ('genericpath', '/usr/lib/python2.7/genericpath.py', 'PYMODULE'),
  ('cmd', '/usr/lib/python2.7/cmd.py', 'PYMODULE'),
  ('threading', '/usr/lib/python2.7/threading.py', 'PYMODULE'),
  ('random', '/usr/lib/python2.7/random.py', 'PYMODULE'),
  ('hashlib', '/usr/lib/python2.7/hashlib.py', 'PYMODULE'),
  ('struct', '/usr/lib/python2.7/struct.py', 'PYMODULE'),
  ('logging', '/usr/lib/python2.7/logging/__init__.py', 'PYMODULE'),
  ('atexit', '/usr/lib/python2.7/atexit.py', 'PYMODULE'),
  ('_threading_local', '/usr/lib/python2.7/_threading_local.py', 'PYMODULE'),
  ('_thread',
   '/home/liudong/.local/lib/python2.7/site-packages/_thread/__init__.py',
   'PYMODULE'),
  ('traceback', '/usr/lib/python2.7/traceback.py', 'PYMODULE'),
  ('pprint', '/usr/lib/python2.7/pprint.py', 'PYMODULE'),
  ('sre_constants', '/usr/lib/python2.7/sre_constants.py', 'PYMODULE'),
  ('sre', '/usr/lib/python2.7/sre.py', 'PYMODULE'),
  ('copy', '/usr/lib/python2.7/copy.py', 'PYMODULE'),
  ('weakref', '/usr/lib/python2.7/weakref.py', 'PYMODULE'),
  ('_weakrefset', '/usr/lib/python2.7/_weakrefset.py', 'PYMODULE'),
  ('UserDict', '/usr/lib/python2.7/UserDict.py', 'PYMODULE'),
  ('_abcoll', '/usr/lib/python2.7/_abcoll.py', 'PYMODULE'),
  ('abc', '/usr/lib/python2.7/abc.py', 'PYMODULE'),
  ('string', '/usr/lib/python2.7/string.py', 'PYMODULE'),
  ('pkg_resources._vendor',
   '/home/liudong/.local/lib/python2.7/site-packages/pkg_resources/_vendor/__init__.py',
   'PYMODULE'),
  ('pkg_resources._vendor.packaging.__about__',
   '/home/liudong/.local/lib/python2.7/site-packages/pkg_resources/_vendor/packaging/__about__.py',
   'PYMODULE'),
  ('pkg_resources._vendor.packaging._compat',
   '/home/liudong/.local/lib/python2.7/site-packages/pkg_resources/_vendor/packaging/_compat.py',
   'PYMODULE'),
  ('pkg_resources._vendor.packaging.specifiers',
   '/home/liudong/.local/lib/python2.7/site-packages/pkg_resources/_vendor/packaging/specifiers.py',
   'PYMODULE'),
  ('pkg_resources._vendor.packaging.requirements',
   '/home/liudong/.local/lib/python2.7/site-packages/pkg_resources/_vendor/packaging/requirements.py',
   'PYMODULE'),
  ('pkg_resources._vendor.appdirs',
   '/home/liudong/.local/lib/python2.7/site-packages/pkg_resources/_vendor/appdirs.py',
   'PYMODULE'),
  ('ctypes', '/usr/lib/python2.7/ctypes/__init__.py', 'PYMODULE'),
  ('ctypes._endian', '/usr/lib/python2.7/ctypes/_endian.py', 'PYMODULE'),
  ('winreg',
   '/home/liudong/.local/lib/python2.7/site-packages/winreg/__init__.py',
   'PYMODULE'),
  ('pkg_resources._vendor.packaging',
   '/home/liudong/.local/lib/python2.7/site-packages/pkg_resources/_vendor/packaging/__init__.py',
   'PYMODULE'),
  ('pkg_resources._vendor.six',
   '/home/liudong/.local/lib/python2.7/site-packages/pkg_resources/_vendor/six.py',
   'PYMODULE'),
  ('pkg_resources._vendor.packaging._structures',
   '/home/liudong/.local/lib/python2.7/site-packages/pkg_resources/_vendor/packaging/_structures.py',
   'PYMODULE'),
  ('pkg_resources._vendor.packaging.utils',
   '/home/liudong/.local/lib/python2.7/site-packages/pkg_resources/_vendor/packaging/utils.py',
   'PYMODULE'),
  ('linecache', '/usr/lib/python2.7/linecache.py', 'PYMODULE'),
  ('sysconfig', '/usr/lib/python2.7/sysconfig.py', 'PYMODULE'),
  ('_osx_support', '/usr/lib/python2.7/_osx_support.py', 'PYMODULE'),
  ('distutils.log', '/usr/lib/python2.7/distutils/log.py', 'PYMODULE'),
  ('distutils', '/usr/lib/python2.7/distutils/__init__.py', 'PYMODULE'),
  ('contextlib', '/usr/lib/python2.7/contextlib.py', 'PYMODULE'),
  ('_sysconfigdata', '/usr/lib/python2.7/_sysconfigdata.py', 'PYMODULE'),
  ('_sysconfigdata_nd',
   '/usr/lib/python2.7/plat-x86_64-linux-gnu/_sysconfigdata_nd.py',
   'PYMODULE'),
  ('pkg_resources.py31compat',
   '/home/liudong/.local/lib/python2.7/site-packages/pkg_resources/py31compat.py',
   'PYMODULE'),
  ('pkg_resources.extern',
   '/home/liudong/.local/lib/python2.7/site-packages/pkg_resources/extern/__init__.py',
   'PYMODULE'),
  ('inspect', '/usr/lib/python2.7/inspect.py', 'PYMODULE'),
  ('tokenize', '/usr/lib/python2.7/tokenize.py', 'PYMODULE'),
  ('token', '/usr/lib/python2.7/token.py', 'PYMODULE'),
  ('dis', '/usr/lib/python2.7/dis.py', 'PYMODULE'),
  ('opcode', '/usr/lib/python2.7/opcode.py', 'PYMODULE'),
  ('textwrap', '/usr/lib/python2.7/textwrap.py', 'PYMODULE'),
  ('tempfile', '/usr/lib/python2.7/tempfile.py', 'PYMODULE'),
  ('dummy_thread', '/usr/lib/python2.7/dummy_thread.py', 'PYMODULE'),
  ('email.parser', '/usr/lib/python2.7/email/parser.py', 'PYMODULE'),
  ('email', '/usr/lib/python2.7/email/__init__.py', 'PYMODULE'),
  ('email.mime', '/usr/lib/python2.7/email/mime/__init__.py', 'PYMODULE'),
  ('email.errors', '/usr/lib/python2.7/email/errors.py', 'PYMODULE'),
  ('email.message', '/usr/lib/python2.7/email/message.py', 'PYMODULE'),
  ('email.iterators', '/usr/lib/python2.7/email/iterators.py', 'PYMODULE'),
  ('email.generator', '/usr/lib/python2.7/email/generator.py', 'PYMODULE'),
  ('email.header', '/usr/lib/python2.7/email/header.py', 'PYMODULE'),
  ('email.base64mime', '/usr/lib/python2.7/email/base64mime.py', 'PYMODULE'),
  ('email.quoprimime', '/usr/lib/python2.7/email/quoprimime.py', 'PYMODULE'),
  ('email.utils', '/usr/lib/python2.7/email/utils.py', 'PYMODULE'),
  ('email.encoders', '/usr/lib/python2.7/email/encoders.py', 'PYMODULE'),
  ('quopri', '/usr/lib/python2.7/quopri.py', 'PYMODULE'),
  ('getopt', '/usr/lib/python2.7/getopt.py', 'PYMODULE'),
  ('email._parseaddr', '/usr/lib/python2.7/email/_parseaddr.py', 'PYMODULE'),
  ('calendar', '/usr/lib/python2.7/calendar.py', 'PYMODULE'),
  ('optparse', '/usr/lib/python2.7/optparse.py', 'PYMODULE'),
  ('gettext', '/usr/lib/python2.7/gettext.py', 'PYMODULE'),
  ('locale', '/usr/lib/python2.7/locale.py', 'PYMODULE'),
  ('urllib', '/usr/lib/python2.7/urllib.py', 'PYMODULE'),
  ('getpass', '/usr/lib/python2.7/getpass.py', 'PYMODULE'),
  ('ftplib', '/usr/lib/python2.7/ftplib.py', 'PYMODULE'),
  ('mimetools', '/usr/lib/python2.7/mimetools.py', 'PYMODULE'),
  ('rfc822', '/usr/lib/python2.7/rfc822.py', 'PYMODULE'),
  ('mimetypes', '/usr/lib/python2.7/mimetypes.py', 'PYMODULE'),
  ('httplib', '/usr/lib/python2.7/httplib.py', 'PYMODULE'),
  ('ssl', '/usr/lib/python2.7/ssl.py', 'PYMODULE'),
  ('nturl2path', '/usr/lib/python2.7/nturl2path.py', 'PYMODULE'),
  ('urlparse', '/usr/lib/python2.7/urlparse.py', 'PYMODULE'),
  ('socket', '/usr/lib/python2.7/socket.py', 'PYMODULE'),
  ('email.charset', '/usr/lib/python2.7/email/charset.py', 'PYMODULE'),
  ('uu', '/usr/lib/python2.7/uu.py', 'PYMODULE'),
  ('email.feedparser', '/usr/lib/python2.7/email/feedparser.py', 'PYMODULE'),
  ('plistlib', '/usr/lib/python2.7/plistlib.py', 'PYMODULE'),
  ('xml.parsers.expat',
   '/usr/lib/python2.7/xml/parsers/expat.py',
   'PYMODULE'),
  ('xml.parsers', '/usr/lib/python2.7/xml/parsers/__init__.py', 'PYMODULE'),
  ('xml', '/usr/lib/python2.7/xml/__init__.py', 'PYMODULE'),
  ('xml.sax.expatreader',
   '/usr/lib/python2.7/xml/sax/expatreader.py',
   'PYMODULE'),
  ('xml.sax.saxutils', '/usr/lib/python2.7/xml/sax/saxutils.py', 'PYMODULE'),
  ('xml.sax', '/usr/lib/python2.7/xml/sax/__init__.py', 'PYMODULE'),
  ('xml.sax.handler', '/usr/lib/python2.7/xml/sax/handler.py', 'PYMODULE'),
  ('xml.sax._exceptions',
   '/usr/lib/python2.7/xml/sax/_exceptions.py',
   'PYMODULE'),
  ('xml.sax.xmlreader',
   '/usr/lib/python2.7/xml/sax/xmlreader.py',
   'PYMODULE'),
  ('collections', '/usr/lib/python2.7/collections.py', 'PYMODULE'),
  ('doctest', '/usr/lib/python2.7/doctest.py', 'PYMODULE'),
  ('difflib', '/usr/lib/python2.7/difflib.py', 'PYMODULE'),
  ('unittest', '/usr/lib/python2.7/unittest/__init__.py', 'PYMODULE'),
  ('unittest.signals', '/usr/lib/python2.7/unittest/signals.py', 'PYMODULE'),
  ('unittest.main', '/usr/lib/python2.7/unittest/main.py', 'PYMODULE'),
  ('unittest.runner', '/usr/lib/python2.7/unittest/runner.py', 'PYMODULE'),
  ('unittest.loader', '/usr/lib/python2.7/unittest/loader.py', 'PYMODULE'),
  ('unittest.suite', '/usr/lib/python2.7/unittest/suite.py', 'PYMODULE'),
  ('unittest.case', '/usr/lib/python2.7/unittest/case.py', 'PYMODULE'),
  ('unittest.result', '/usr/lib/python2.7/unittest/result.py', 'PYMODULE'),
  ('unittest.util', '/usr/lib/python2.7/unittest/util.py', 'PYMODULE'),
  ('heapq', '/usr/lib/python2.7/heapq.py', 'PYMODULE'),
  ('keyword', '/usr/lib/python2.7/keyword.py', 'PYMODULE'),
  ('platform', '/usr/lib/python2.7/platform.py', 'PYMODULE'),
  ('subprocess', '/usr/lib/python2.7/subprocess.py', 'PYMODULE'),
  ('pickle', '/usr/lib/python2.7/pickle.py', 'PYMODULE'),
  ('ctypes.wintypes', '/usr/lib/python2.7/ctypes/wintypes.py', 'PYMODULE'),
  ('pkgutil', '/usr/lib/python2.7/pkgutil.py', 'PYMODULE'),
  ('functools', '/usr/lib/python2.7/functools.py', 'PYMODULE'),
  ('stat', '/usr/lib/python2.7/stat.py', 'PYMODULE'),
  ('warnings', '/usr/lib/python2.7/warnings.py', 'PYMODULE'),
  ('zipfile', '/usr/lib/python2.7/zipfile.py', 'PYMODULE'),
  ('py_compile', '/usr/lib/python2.7/py_compile.py', 'PYMODULE'),
  ('shutil', '/usr/lib/python2.7/shutil.py', 'PYMODULE'),
  ('tarfile', '/usr/lib/python2.7/tarfile.py', 'PYMODULE'),
  ('gzip', '/usr/lib/python2.7/gzip.py', 'PYMODULE'),
  ('types', '/usr/lib/python2.7/types.py', 'PYMODULE'),
  ('re', '/usr/lib/python2.7/re.py', 'PYMODULE'),
  ('sre_parse', '/usr/lib/python2.7/sre_parse.py', 'PYMODULE'),
  ('sre_compile', '/usr/lib/python2.7/sre_compile.py', 'PYMODULE'),
  ('io', '/usr/lib/python2.7/io.py', 'PYMODULE'),
  ('os', '/usr/lib/python2.7/os.py', 'PYMODULE'),
  ('os2emxpath', '/usr/lib/python2.7/os2emxpath.py', 'PYMODULE'),
  ('ntpath', '/usr/lib/python2.7/ntpath.py', 'PYMODULE'),
  ('__future__', '/usr/lib/python2.7/__future__.py', 'PYMODULE'),
  ('encodings.aliases',
   '/usr/lib/python2.7/encodings/aliases.py',
   'PYMODULE'),
  ('encodings', '/usr/lib/python2.7/encodings/__init__.py', 'PYMODULE'),
  ('encodings.idna', '/usr/lib/python2.7/encodings/idna.py', 'PYMODULE'),
  ('stringprep', '/usr/lib/python2.7/stringprep.py', 'PYMODULE'),
  ('encodings.mbcs', '/usr/lib/python2.7/encodings/mbcs.py', 'PYMODULE'),
  ('encodings.raw_unicode_escape',
   '/usr/lib/python2.7/encodings/raw_unicode_escape.py',
   'PYMODULE'),
  ('encodings.gb18030',
   '/usr/lib/python2.7/encodings/gb18030.py',
   'PYMODULE'),
  ('encodings.shift_jisx0213',
   '/usr/lib/python2.7/encodings/shift_jisx0213.py',
   'PYMODULE'),
  ('encodings.ascii', '/usr/lib/python2.7/encodings/ascii.py', 'PYMODULE'),
  ('encodings.cp861', '/usr/lib/python2.7/encodings/cp861.py', 'PYMODULE'),
  ('encodings.cp860', '/usr/lib/python2.7/encodings/cp860.py', 'PYMODULE'),
  ('encodings.cp863', '/usr/lib/python2.7/encodings/cp863.py', 'PYMODULE'),
  ('encodings.cp862', '/usr/lib/python2.7/encodings/cp862.py', 'PYMODULE'),
  ('encodings.cp865', '/usr/lib/python2.7/encodings/cp865.py', 'PYMODULE'),
  ('encodings.big5hkscs',
   '/usr/lib/python2.7/encodings/big5hkscs.py',
   'PYMODULE'),
  ('encodings.cp866', '/usr/lib/python2.7/encodings/cp866.py', 'PYMODULE'),
  ('encodings.cp869', '/usr/lib/python2.7/encodings/cp869.py', 'PYMODULE'),
  ('encodings.mac_latin2',
   '/usr/lib/python2.7/encodings/mac_latin2.py',
   'PYMODULE'),
  ('encodings.hex_codec',
   '/usr/lib/python2.7/encodings/hex_codec.py',
   'PYMODULE'),
  ('encodings.cp950', '/usr/lib/python2.7/encodings/cp950.py', 'PYMODULE'),
  ('encodings.quopri_codec',
   '/usr/lib/python2.7/encodings/quopri_codec.py',
   'PYMODULE'),
  ('encodings.utf_32_be',
   '/usr/lib/python2.7/encodings/utf_32_be.py',
   'PYMODULE'),
  ('encodings.string_escape',
   '/usr/lib/python2.7/encodings/string_escape.py',
   'PYMODULE'),
  ('encodings.cp1250', '/usr/lib/python2.7/encodings/cp1250.py', 'PYMODULE'),
  ('encodings.cp1251', '/usr/lib/python2.7/encodings/cp1251.py', 'PYMODULE'),
  ('encodings.cp1252', '/usr/lib/python2.7/encodings/cp1252.py', 'PYMODULE'),
  ('encodings.cp1253', '/usr/lib/python2.7/encodings/cp1253.py', 'PYMODULE'),
  ('encodings.cp1254', '/usr/lib/python2.7/encodings/cp1254.py', 'PYMODULE'),
  ('encodings.cp1255', '/usr/lib/python2.7/encodings/cp1255.py', 'PYMODULE'),
  ('encodings.cp1256', '/usr/lib/python2.7/encodings/cp1256.py', 'PYMODULE'),
  ('encodings.cp1257', '/usr/lib/python2.7/encodings/cp1257.py', 'PYMODULE'),
  ('encodings.cp1258', '/usr/lib/python2.7/encodings/cp1258.py', 'PYMODULE'),
  ('encodings.euc_jp', '/usr/lib/python2.7/encodings/euc_jp.py', 'PYMODULE'),
  ('encodings.hz', '/usr/lib/python2.7/encodings/hz.py', 'PYMODULE'),
  ('encodings.mac_cyrillic',
   '/usr/lib/python2.7/encodings/mac_cyrillic.py',
   'PYMODULE'),
  ('encodings.iso2022_kr',
   '/usr/lib/python2.7/encodings/iso2022_kr.py',
   'PYMODULE'),
  ('encodings.unicode_internal',
   '/usr/lib/python2.7/encodings/unicode_internal.py',
   'PYMODULE'),
  ('encodings.cp500', '/usr/lib/python2.7/encodings/cp500.py', 'PYMODULE'),
  ('encodings.iso8859_10',
   '/usr/lib/python2.7/encodings/iso8859_10.py',
   'PYMODULE'),
  ('encodings.iso8859_11',
   '/usr/lib/python2.7/encodings/iso8859_11.py',
   'PYMODULE'),
  ('encodings.iso8859_13',
   '/usr/lib/python2.7/encodings/iso8859_13.py',
   'PYMODULE'),
  ('encodings.iso8859_14',
   '/usr/lib/python2.7/encodings/iso8859_14.py',
   'PYMODULE'),
  ('encodings.cp424', '/usr/lib/python2.7/encodings/cp424.py', 'PYMODULE'),
  ('encodings.iso8859_16',
   '/usr/lib/python2.7/encodings/iso8859_16.py',
   'PYMODULE'),
  ('encodings.cp1006', '/usr/lib/python2.7/encodings/cp1006.py', 'PYMODULE'),
  ('encodings.hp_roman8',
   '/usr/lib/python2.7/encodings/hp_roman8.py',
   'PYMODULE'),
  ('encodings.charmap',
   '/usr/lib/python2.7/encodings/charmap.py',
   'PYMODULE'),
  ('encodings.utf_32', '/usr/lib/python2.7/encodings/utf_32.py', 'PYMODULE'),
  ('encodings.latin_1',
   '/usr/lib/python2.7/encodings/latin_1.py',
   'PYMODULE'),
  ('encodings.utf_16_be',
   '/usr/lib/python2.7/encodings/utf_16_be.py',
   'PYMODULE'),
  ('encodings.cp737', '/usr/lib/python2.7/encodings/cp737.py', 'PYMODULE'),
  ('encodings.utf_16', '/usr/lib/python2.7/encodings/utf_16.py', 'PYMODULE'),
  ('encodings.cp437', '/usr/lib/python2.7/encodings/cp437.py', 'PYMODULE'),
  ('encodings.mac_roman',
   '/usr/lib/python2.7/encodings/mac_roman.py',
   'PYMODULE'),
  ('encodings.mac_centeuro',
   '/usr/lib/python2.7/encodings/mac_centeuro.py',
   'PYMODULE'),
  ('encodings.mac_croatian',
   '/usr/lib/python2.7/encodings/mac_croatian.py',
   'PYMODULE'),
  ('encodings.punycode',
   '/usr/lib/python2.7/encodings/punycode.py',
   'PYMODULE'),
  ('encodings.unicode_escape',
   '/usr/lib/python2.7/encodings/unicode_escape.py',
   'PYMODULE'),
  ('encodings.bz2_codec',
   '/usr/lib/python2.7/encodings/bz2_codec.py',
   'PYMODULE'),
  ('encodings.rot_13', '/usr/lib/python2.7/encodings/rot_13.py', 'PYMODULE'),
  ('encodings.cp874', '/usr/lib/python2.7/encodings/cp874.py', 'PYMODULE'),
  ('encodings.cp875', '/usr/lib/python2.7/encodings/cp875.py', 'PYMODULE'),
  ('encodings.cp720', '/usr/lib/python2.7/encodings/cp720.py', 'PYMODULE'),
  ('encodings.tis_620',
   '/usr/lib/python2.7/encodings/tis_620.py',
   'PYMODULE'),
  ('encodings.zlib_codec',
   '/usr/lib/python2.7/encodings/zlib_codec.py',
   'PYMODULE'),
  ('encodings.iso2022_jp_2004',
   '/usr/lib/python2.7/encodings/iso2022_jp_2004.py',
   'PYMODULE'),
  ('encodings.euc_jisx0213',
   '/usr/lib/python2.7/encodings/euc_jisx0213.py',
   'PYMODULE'),
  ('encodings.ptcp154',
   '/usr/lib/python2.7/encodings/ptcp154.py',
   'PYMODULE'),
  ('encodings.uu_codec',
   '/usr/lib/python2.7/encodings/uu_codec.py',
   'PYMODULE'),
  ('encodings.utf_16_le',
   '/usr/lib/python2.7/encodings/utf_16_le.py',
   'PYMODULE'),
  ('encodings.iso2022_jp_2',
   '/usr/lib/python2.7/encodings/iso2022_jp_2.py',
   'PYMODULE'),
  ('encodings.iso2022_jp_3',
   '/usr/lib/python2.7/encodings/iso2022_jp_3.py',
   'PYMODULE'),
  ('encodings.iso2022_jp_1',
   '/usr/lib/python2.7/encodings/iso2022_jp_1.py',
   'PYMODULE'),
  ('encodings.mac_romanian',
   '/usr/lib/python2.7/encodings/mac_romanian.py',
   'PYMODULE'),
  ('encodings.cp1026', '/usr/lib/python2.7/encodings/cp1026.py', 'PYMODULE'),
  ('encodings.mac_farsi',
   '/usr/lib/python2.7/encodings/mac_farsi.py',
   'PYMODULE'),
  ('encodings.undefined',
   '/usr/lib/python2.7/encodings/undefined.py',
   'PYMODULE'),
  ('encodings.mac_turkish',
   '/usr/lib/python2.7/encodings/mac_turkish.py',
   'PYMODULE'),
  ('encodings.koi8_u', '/usr/lib/python2.7/encodings/koi8_u.py', 'PYMODULE'),
  ('encodings.koi8_r', '/usr/lib/python2.7/encodings/koi8_r.py', 'PYMODULE'),
  ('encodings.utf_8_sig',
   '/usr/lib/python2.7/encodings/utf_8_sig.py',
   'PYMODULE'),
  ('encodings.iso2022_jp',
   '/usr/lib/python2.7/encodings/iso2022_jp.py',
   'PYMODULE'),
  ('encodings.palmos', '/usr/lib/python2.7/encodings/palmos.py', 'PYMODULE'),
  ('encodings.mac_greek',
   '/usr/lib/python2.7/encodings/mac_greek.py',
   'PYMODULE'),
  ('encodings.shift_jis_2004',
   '/usr/lib/python2.7/encodings/shift_jis_2004.py',
   'PYMODULE'),
  ('encodings.gbk', '/usr/lib/python2.7/encodings/gbk.py', 'PYMODULE'),
  ('encodings.mac_iceland',
   '/usr/lib/python2.7/encodings/mac_iceland.py',
   'PYMODULE'),
  ('encodings.cp858', '/usr/lib/python2.7/encodings/cp858.py', 'PYMODULE'),
  ('encodings.cp850', '/usr/lib/python2.7/encodings/cp850.py', 'PYMODULE'),
  ('encodings.cp852', '/usr/lib/python2.7/encodings/cp852.py', 'PYMODULE'),
  ('encodings.cp855', '/usr/lib/python2.7/encodings/cp855.py', 'PYMODULE'),
  ('encodings.cp856', '/usr/lib/python2.7/encodings/cp856.py', 'PYMODULE'),
  ('encodings.cp857', '/usr/lib/python2.7/encodings/cp857.py', 'PYMODULE'),
  ('encodings.iso8859_4',
   '/usr/lib/python2.7/encodings/iso8859_4.py',
   'PYMODULE'),
  ('encodings.iso8859_5',
   '/usr/lib/python2.7/encodings/iso8859_5.py',
   'PYMODULE'),
  ('encodings.iso8859_6',
   '/usr/lib/python2.7/encodings/iso8859_6.py',
   'PYMODULE'),
  ('encodings.iso8859_7',
   '/usr/lib/python2.7/encodings/iso8859_7.py',
   'PYMODULE'),
  ('encodings.iso8859_1',
   '/usr/lib/python2.7/encodings/iso8859_1.py',
   'PYMODULE'),
  ('encodings.iso8859_2',
   '/usr/lib/python2.7/encodings/iso8859_2.py',
   'PYMODULE'),
  ('encodings.iso8859_3',
   '/usr/lib/python2.7/encodings/iso8859_3.py',
   'PYMODULE'),
  ('encodings.gb2312', '/usr/lib/python2.7/encodings/gb2312.py', 'PYMODULE'),
  ('encodings.iso8859_8',
   '/usr/lib/python2.7/encodings/iso8859_8.py',
   'PYMODULE'),
  ('encodings.iso8859_9',
   '/usr/lib/python2.7/encodings/iso8859_9.py',
   'PYMODULE'),
  ('encodings.cp949', '/usr/lib/python2.7/encodings/cp949.py', 'PYMODULE'),
  ('encodings.cp864', '/usr/lib/python2.7/encodings/cp864.py', 'PYMODULE'),
  ('encodings.base64_codec',
   '/usr/lib/python2.7/encodings/base64_codec.py',
   'PYMODULE'),
  ('encodings.cp037', '/usr/lib/python2.7/encodings/cp037.py', 'PYMODULE'),
  ('encodings.utf_8', '/usr/lib/python2.7/encodings/utf_8.py', 'PYMODULE'),
  ('encodings.mac_arabic',
   '/usr/lib/python2.7/encodings/mac_arabic.py',
   'PYMODULE'),
  ('encodings.euc_kr', '/usr/lib/python2.7/encodings/euc_kr.py', 'PYMODULE'),
  ('encodings.utf_7', '/usr/lib/python2.7/encodings/utf_7.py', 'PYMODULE'),
  ('encodings.shift_jis',
   '/usr/lib/python2.7/encodings/shift_jis.py',
   'PYMODULE'),
  ('encodings.utf_32_le',
   '/usr/lib/python2.7/encodings/utf_32_le.py',
   'PYMODULE'),
  ('encodings.euc_jis_2004',
   '/usr/lib/python2.7/encodings/euc_jis_2004.py',
   'PYMODULE'),
  ('encodings.cp775', '/usr/lib/python2.7/encodings/cp775.py', 'PYMODULE'),
  ('encodings.cp1140', '/usr/lib/python2.7/encodings/cp1140.py', 'PYMODULE'),
  ('encodings.big5', '/usr/lib/python2.7/encodings/big5.py', 'PYMODULE'),
  ('encodings.iso8859_15',
   '/usr/lib/python2.7/encodings/iso8859_15.py',
   'PYMODULE'),
  ('encodings.iso2022_jp_ext',
   '/usr/lib/python2.7/encodings/iso2022_jp_ext.py',
   'PYMODULE'),
  ('encodings.johab', '/usr/lib/python2.7/encodings/johab.py', 'PYMODULE'),
  ('encodings.cp932', '/usr/lib/python2.7/encodings/cp932.py', 'PYMODULE'),
  ('codecs', '/usr/lib/python2.7/codecs.py', 'PYMODULE'),
  ('_strptime', '/usr/lib/python2.7/_strptime.py', 'PYMODULE'),
  ('guazi.pay_liudong',
   '/home/liudong/workspace/python/guazi/pay_liudong.py',
   'PYMODULE'),
  ('guazi', '/home/liudong/workspace/python/guazi/__init__.py', 'PYMODULE'),
  ('base64', '/usr/lib/python2.7/base64.py', 'PYMODULE'),
  ('Crypto.Hash.MD5',
   '/usr/lib/python2.7/dist-packages/Crypto/Hash/MD5.py',
   'PYMODULE'),
  ('md5', '/usr/lib/python2.7/md5.py', 'PYMODULE'),
  ('Crypto.Hash.hashalgo',
   '/usr/lib/python2.7/dist-packages/Crypto/Hash/hashalgo.py',
   'PYMODULE'),
  ('Crypto.Util.py3compat',
   '/usr/lib/python2.7/dist-packages/Crypto/Util/py3compat.py',
   'PYMODULE'),
  ('Crypto.Util',
   '/usr/lib/python2.7/dist-packages/Crypto/Util/__init__.py',
   'PYMODULE'),
  ('Crypto.Util.Counter',
   '/usr/lib/python2.7/dist-packages/Crypto/Util/Counter.py',
   'PYMODULE'),
  ('Crypto.Util.py21compat',
   '/usr/lib/python2.7/dist-packages/Crypto/Util/py21compat.py',
   'PYMODULE'),
  ('Crypto',
   '/usr/lib/python2.7/dist-packages/Crypto/__init__.py',
   'PYMODULE'),
  ('Crypto.Random',
   '/usr/lib/python2.7/dist-packages/Crypto/Random/__init__.py',
   'PYMODULE'),
  ('Crypto.Random._UserFriendlyRNG',
   '/usr/lib/python2.7/dist-packages/Crypto/Random/_UserFriendlyRNG.py',
   'PYMODULE'),
  ('Crypto.Random.Fortuna.FortunaAccumulator',
   '/usr/lib/python2.7/dist-packages/Crypto/Random/Fortuna/FortunaAccumulator.py',
   'PYMODULE'),
  ('Crypto.Random.Fortuna.FortunaGenerator',
   '/usr/lib/python2.7/dist-packages/Crypto/Random/Fortuna/FortunaGenerator.py',
   'PYMODULE'),
  ('Crypto.Cipher.AES',
   '/usr/lib/python2.7/dist-packages/Crypto/Cipher/AES.py',
   'PYMODULE'),
  ('Crypto.Cipher.blockalgo',
   '/usr/lib/python2.7/dist-packages/Crypto/Cipher/blockalgo.py',
   'PYMODULE'),
  ('Crypto.Cipher',
   '/usr/lib/python2.7/dist-packages/Crypto/Cipher/__init__.py',
   'PYMODULE'),
  ('Crypto.Cipher.DES',
   '/usr/lib/python2.7/dist-packages/Crypto/Cipher/DES.py',
   'PYMODULE'),
  ('Crypto.Cipher.DES3',
   '/usr/lib/python2.7/dist-packages/Crypto/Cipher/DES3.py',
   'PYMODULE'),
  ('Crypto.Util.number',
   '/usr/lib/python2.7/dist-packages/Crypto/Util/number.py',
   'PYMODULE'),
  ('Crypto.Random.random',
   '/usr/lib/python2.7/dist-packages/Crypto/Random/random.py',
   'PYMODULE'),
  ('Crypto.Util._number_new',
   '/usr/lib/python2.7/dist-packages/Crypto/Util/_number_new.py',
   'PYMODULE'),
  ('Crypto.Random.Fortuna.SHAd256',
   '/usr/lib/python2.7/dist-packages/Crypto/Random/Fortuna/SHAd256.py',
   'PYMODULE'),
  ('Crypto.Hash.SHA256',
   '/usr/lib/python2.7/dist-packages/Crypto/Hash/SHA256.py',
   'PYMODULE'),
  ('Crypto.pct_warnings',
   '/usr/lib/python2.7/dist-packages/Crypto/pct_warnings.py',
   'PYMODULE'),
  ('Crypto.Random.Fortuna',
   '/usr/lib/python2.7/dist-packages/Crypto/Random/Fortuna/__init__.py',
   'PYMODULE'),
  ('Crypto.Random.OSRNG',
   '/usr/lib/python2.7/dist-packages/Crypto/Random/OSRNG/__init__.py',
   'PYMODULE'),
  ('Crypto.Random.OSRNG.fallback',
   '/usr/lib/python2.7/dist-packages/Crypto/Random/OSRNG/fallback.py',
   'PYMODULE'),
  ('Crypto.Random.OSRNG.rng_base',
   '/usr/lib/python2.7/dist-packages/Crypto/Random/OSRNG/rng_base.py',
   'PYMODULE'),
  ('Crypto.Random.OSRNG.nt',
   '/usr/lib/python2.7/dist-packages/Crypto/Random/OSRNG/nt.py',
   'PYMODULE'),
  ('Crypto.Random.OSRNG.posix',
   '/usr/lib/python2.7/dist-packages/Crypto/Random/OSRNG/posix.py',
   'PYMODULE'),
  ('Crypto.Hash',
   '/usr/lib/python2.7/dist-packages/Crypto/Hash/__init__.py',
   'PYMODULE'),
  ('Crypto.Hash.HMAC',
   '/usr/lib/python2.7/dist-packages/Crypto/Hash/HMAC.py',
   'PYMODULE'),
  ('Crypto.Hash.SHA',
   '/usr/lib/python2.7/dist-packages/Crypto/Hash/SHA.py',
   'PYMODULE'),
  ('sha', '/usr/lib/python2.7/sha.py', 'PYMODULE'),
  ('Crypto.Signature.PKCS1_v1_5',
   '/usr/lib/python2.7/dist-packages/Crypto/Signature/PKCS1_v1_5.py',
   'PYMODULE'),
  ('Crypto.Util.asn1',
   '/usr/lib/python2.7/dist-packages/Crypto/Util/asn1.py',
   'PYMODULE'),
  ('Crypto.Signature',
   '/usr/lib/python2.7/dist-packages/Crypto/Signature/__init__.py',
   'PYMODULE'),
  ('Crypto.PublicKey.RSA',
   '/usr/lib/python2.7/dist-packages/Crypto/PublicKey/RSA.py',
   'PYMODULE'),
  ('Crypto.Protocol.KDF',
   '/usr/lib/python2.7/dist-packages/Crypto/Protocol/KDF.py',
   'PYMODULE'),
  ('Crypto.Protocol',
   '/usr/lib/python2.7/dist-packages/Crypto/Protocol/__init__.py',
   'PYMODULE'),
  ('Crypto.PublicKey.pubkey',
   '/usr/lib/python2.7/dist-packages/Crypto/PublicKey/pubkey.py',
   'PYMODULE'),
  ('Crypto.PublicKey._slowmath',
   '/usr/lib/python2.7/dist-packages/Crypto/PublicKey/_slowmath.py',
   'PYMODULE'),
  ('Crypto.PublicKey._RSA',
   '/usr/lib/python2.7/dist-packages/Crypto/PublicKey/_RSA.py',
   'PYMODULE'),
  ('Crypto.PublicKey',
   '/usr/lib/python2.7/dist-packages/Crypto/PublicKey/__init__.py',
   'PYMODULE'),
  ('requests',
   '/home/liudong/.local/lib/python2.7/site-packages/requests/__init__.py',
   'PYMODULE'),
  ('requests.status_codes',
   '/home/liudong/.local/lib/python2.7/site-packages/requests/status_codes.py',
   'PYMODULE'),
  ('requests.structures',
   '/home/liudong/.local/lib/python2.7/site-packages/requests/structures.py',
   'PYMODULE'),
  ('requests.compat',
   '/home/liudong/.local/lib/python2.7/site-packages/requests/compat.py',
   'PYMODULE'),
  ('http.cookies',
   '/home/liudong/.local/lib/python2.7/site-packages/http/cookies.py',
   'PYMODULE'),
  ('http.cookiejar',
   '/home/liudong/.local/lib/python2.7/site-packages/http/cookiejar.py',
   'PYMODULE'),
  ('http',
   '/home/liudong/.local/lib/python2.7/site-packages/http/__init__.py',
   'PYMODULE'),
  ('Cookie', '/usr/lib/python2.7/Cookie.py', 'PYMODULE'),
  ('cookielib', '/usr/lib/python2.7/cookielib.py', 'PYMODULE'),
  ('_MozillaCookieJar',
   '/usr/lib/python2.7/_MozillaCookieJar.py',
   'PYMODULE'),
  ('_LWPCookieJar', '/usr/lib/python2.7/_LWPCookieJar.py', 'PYMODULE'),
  ('dummy_threading', '/usr/lib/python2.7/dummy_threading.py', 'PYMODULE'),
  ('urllib2', '/usr/lib/python2.7/urllib2.py', 'PYMODULE'),
  ('bisect', '/usr/lib/python2.7/bisect.py', 'PYMODULE'),
  ('requests.api',
   '/home/liudong/.local/lib/python2.7/site-packages/requests/api.py',
   'PYMODULE'),
  ('requests.sessions',
   '/home/liudong/.local/lib/python2.7/site-packages/requests/sessions.py',
   'PYMODULE'),
  ('requests.adapters',
   '/home/liudong/.local/lib/python2.7/site-packages/requests/adapters.py',
   'PYMODULE'),
  ('urllib3.contrib.socks',
   '/home/liudong/.local/lib/python2.7/site-packages/urllib3/contrib/socks.py',
   'PYMODULE'),
  ('urllib3.util.url',
   '/home/liudong/.local/lib/python2.7/site-packages/urllib3/util/url.py',
   'PYMODULE'),
  ('urllib3.connectionpool',
   '/home/liudong/.local/lib/python2.7/site-packages/urllib3/connectionpool.py',
   'PYMODULE'),
  ('urllib3.util.queue',
   '/home/liudong/.local/lib/python2.7/site-packages/urllib3/util/queue.py',
   'PYMODULE'),
  ('Queue', '/usr/lib/python2.7/Queue.py', 'PYMODULE'),
  ('urllib3.util.timeout',
   '/home/liudong/.local/lib/python2.7/site-packages/urllib3/util/timeout.py',
   'PYMODULE'),
  ('urllib3.util.response',
   '/home/liudong/.local/lib/python2.7/site-packages/urllib3/util/response.py',
   'PYMODULE'),
  ('urllib3.util.request',
   '/home/liudong/.local/lib/python2.7/site-packages/urllib3/util/request.py',
   'PYMODULE'),
  ('urllib3.util.connection',
   '/home/liudong/.local/lib/python2.7/site-packages/urllib3/util/connection.py',
   'PYMODULE'),
  ('urllib3.contrib._appengine_environ',
   '/home/liudong/.local/lib/python2.7/site-packages/urllib3/contrib/_appengine_environ.py',
   'PYMODULE'),
  ('urllib3.util.wait',
   '/home/liudong/.local/lib/python2.7/site-packages/urllib3/util/wait.py',
   'PYMODULE'),
  ('urllib3.request',
   '/home/liudong/.local/lib/python2.7/site-packages/urllib3/request.py',
   'PYMODULE'),
  ('urllib3.filepost',
   '/home/liudong/.local/lib/python2.7/site-packages/urllib3/filepost.py',
   'PYMODULE'),
  ('urllib3.fields',
   '/home/liudong/.local/lib/python2.7/site-packages/urllib3/fields.py',
   'PYMODULE'),
  ('urllib3.packages.six',
   '/home/liudong/.local/lib/python2.7/site-packages/urllib3/packages/six.py',
   'PYMODULE'),
  ('urllib3.packages',
   '/home/liudong/.local/lib/python2.7/site-packages/urllib3/packages/__init__.py',
   'PYMODULE'),
  ('urllib3.packages.ssl_match_hostname',
   '/home/liudong/.local/lib/python2.7/site-packages/urllib3/packages/ssl_match_hostname/__init__.py',
   'PYMODULE'),
  ('urllib3.packages.ssl_match_hostname._implementation',
   '/home/liudong/.local/lib/python2.7/site-packages/urllib3/packages/ssl_match_hostname/_implementation.py',
   'PYMODULE'),
  ('ipaddress', '/usr/lib/python2.7/dist-packages/ipaddress.py', 'PYMODULE'),
  ('backports.ssl_match_hostname',
   '/usr/lib/python2.7/dist-packages/backports/ssl_match_hostname/__init__.py',
   'PYMODULE'),
  ('backports',
   '/usr/lib/python2.7/dist-packages/backports/__init__.py',
   'PYMODULE'),
  ('urllib3.connection',
   '/home/liudong/.local/lib/python2.7/site-packages/urllib3/connection.py',
   'PYMODULE'),
  ('urllib3._collections',
   '/home/liudong/.local/lib/python2.7/site-packages/urllib3/_collections.py',
   'PYMODULE'),
  ('urllib3.util.ssl_',
   '/home/liudong/.local/lib/python2.7/site-packages/urllib3/util/ssl_.py',
   'PYMODULE'),
  ('hmac', '/usr/lib/python2.7/hmac.py', 'PYMODULE'),
  ('urllib3.util.retry',
   '/home/liudong/.local/lib/python2.7/site-packages/urllib3/util/retry.py',
   'PYMODULE'),
  ('urllib3.util',
   '/home/liudong/.local/lib/python2.7/site-packages/urllib3/util/__init__.py',
   'PYMODULE'),
  ('urllib3.response',
   '/home/liudong/.local/lib/python2.7/site-packages/urllib3/response.py',
   'PYMODULE'),
  ('urllib3.poolmanager',
   '/home/liudong/.local/lib/python2.7/site-packages/urllib3/poolmanager.py',
   'PYMODULE'),
  ('requests._internal_utils',
   '/home/liudong/.local/lib/python2.7/site-packages/requests/_internal_utils.py',
   'PYMODULE'),
  ('requests.hooks',
   '/home/liudong/.local/lib/python2.7/site-packages/requests/hooks.py',
   'PYMODULE'),
  ('requests.cookies',
   '/home/liudong/.local/lib/python2.7/site-packages/requests/cookies.py',
   'PYMODULE'),
  ('requests.auth',
   '/home/liudong/.local/lib/python2.7/site-packages/requests/auth.py',
   'PYMODULE'),
  ('requests.models',
   '/home/liudong/.local/lib/python2.7/site-packages/requests/models.py',
   'PYMODULE'),
  ('idna',
   '/home/liudong/.local/lib/python2.7/site-packages/idna/__init__.py',
   'PYMODULE'),
  ('idna.core',
   '/home/liudong/.local/lib/python2.7/site-packages/idna/core.py',
   'PYMODULE'),
  ('idna.uts46data',
   '/home/liudong/.local/lib/python2.7/site-packages/idna/uts46data.py',
   'PYMODULE'),
  ('idna.intranges',
   '/home/liudong/.local/lib/python2.7/site-packages/idna/intranges.py',
   'PYMODULE'),
  ('idna.idnadata',
   '/home/liudong/.local/lib/python2.7/site-packages/idna/idnadata.py',
   'PYMODULE'),
  ('idna.package_data',
   '/home/liudong/.local/lib/python2.7/site-packages/idna/package_data.py',
   'PYMODULE'),
  ('requests.packages',
   '/home/liudong/.local/lib/python2.7/site-packages/requests/packages.py',
   'PYMODULE'),
  ('requests.utils',
   '/home/liudong/.local/lib/python2.7/site-packages/requests/utils.py',
   'PYMODULE'),
  ('netrc', '/usr/lib/python2.7/netrc.py', 'PYMODULE'),
  ('requests.certs',
   '/home/liudong/.local/lib/python2.7/site-packages/requests/certs.py',
   'PYMODULE'),
  ('certifi',
   '/home/liudong/.local/lib/python2.7/site-packages/certifi/__init__.py',
   'PYMODULE'),
  ('certifi.core',
   '/home/liudong/.local/lib/python2.7/site-packages/certifi/core.py',
   'PYMODULE'),
  ('requests.__version__',
   '/home/liudong/.local/lib/python2.7/site-packages/requests/__version__.py',
   'PYMODULE'),
  ('urllib3.exceptions',
   '/home/liudong/.local/lib/python2.7/site-packages/urllib3/exceptions.py',
   'PYMODULE'),
  ('cryptography',
   '/usr/lib/python2.7/dist-packages/cryptography/__init__.py',
   'PYMODULE'),
  ('cryptography.hazmat.bindings.openssl._conditional',
   '/usr/lib/python2.7/dist-packages/cryptography/hazmat/bindings/openssl/_conditional.py',
   'PYMODULE'),
  ('cryptography.hazmat.bindings.openssl.binding',
   '/usr/lib/python2.7/dist-packages/cryptography/hazmat/bindings/openssl/binding.py',
   'PYMODULE'),
  ('cryptography.hazmat.bindings',
   '/usr/lib/python2.7/dist-packages/cryptography/hazmat/bindings/__init__.py',
   'PYMODULE'),
  ('cryptography.hazmat',
   '/usr/lib/python2.7/dist-packages/cryptography/hazmat/__init__.py',
   'PYMODULE'),
  ('cryptography.exceptions',
   '/usr/lib/python2.7/dist-packages/cryptography/exceptions.py',
   'PYMODULE'),
  ('enum', '/usr/lib/python2.7/dist-packages/enum/__init__.py', 'PYMODULE'),
  ('cryptography.hazmat.bindings.openssl',
   '/usr/lib/python2.7/dist-packages/cryptography/hazmat/bindings/openssl/__init__.py',
   'PYMODULE'),
  ('cryptography.hazmat.backends.interfaces',
   '/usr/lib/python2.7/dist-packages/cryptography/hazmat/backends/interfaces.py',
   'PYMODULE'),
  ('six',
   '/home/liudong/.local/lib/python2.7/site-packages/six.py',
   'PYMODULE'),
  ('cryptography.hazmat.backends.openssl.x509',
   '/usr/lib/python2.7/dist-packages/cryptography/hazmat/backends/openssl/x509.py',
   'PYMODULE'),
  ('cryptography.x509.oid',
   '/usr/lib/python2.7/dist-packages/cryptography/x509/oid.py',
   'PYMODULE'),
  ('cryptography.hazmat.primitives.serialization',
   '/usr/lib/python2.7/dist-packages/cryptography/hazmat/primitives/serialization.py',
   'PYMODULE'),
  ('cryptography.hazmat.primitives.asymmetric.rsa',
   '/usr/lib/python2.7/dist-packages/cryptography/hazmat/primitives/asymmetric/rsa.py',
   'PYMODULE'),
  ('fractions', '/usr/lib/python2.7/fractions.py', 'PYMODULE'),
  ('numbers', '/usr/lib/python2.7/numbers.py', 'PYMODULE'),
  ('decimal', '/usr/lib/python2.7/decimal.py', 'PYMODULE'),
  ('cryptography.hazmat.primitives.asymmetric.ec',
   '/usr/lib/python2.7/dist-packages/cryptography/hazmat/primitives/asymmetric/ec.py',
   'PYMODULE'),
  ('cryptography.hazmat.primitives.asymmetric.dsa',
   '/usr/lib/python2.7/dist-packages/cryptography/hazmat/primitives/asymmetric/dsa.py',
   'PYMODULE'),
  ('cryptography.hazmat.primitives.asymmetric',
   '/usr/lib/python2.7/dist-packages/cryptography/hazmat/primitives/asymmetric/__init__.py',
   'PYMODULE'),
  ('cryptography.hazmat.primitives.hashes',
   '/usr/lib/python2.7/dist-packages/cryptography/hazmat/primitives/hashes.py',
   'PYMODULE'),
  ('cryptography.hazmat.primitives',
   '/usr/lib/python2.7/dist-packages/cryptography/hazmat/primitives/__init__.py',
   'PYMODULE'),
  ('cryptography.hazmat.primitives.interfaces',
   '/usr/lib/python2.7/dist-packages/cryptography/hazmat/primitives/interfaces/__init__.py',
   'PYMODULE'),
  ('cryptography.hazmat.primitives.ciphers',
   '/usr/lib/python2.7/dist-packages/cryptography/hazmat/primitives/ciphers/__init__.py',
   'PYMODULE'),
  ('cryptography.hazmat.primitives.ciphers.base',
   '/usr/lib/python2.7/dist-packages/cryptography/hazmat/primitives/ciphers/base.py',
   'PYMODULE'),
  ('cryptography.hazmat.primitives.ciphers.modes',
   '/usr/lib/python2.7/dist-packages/cryptography/hazmat/primitives/ciphers/modes.py',
   'PYMODULE'),
  ('cryptography.hazmat.primitives.constant_time',
   '/usr/lib/python2.7/dist-packages/cryptography/hazmat/primitives/constant_time.py',
   'PYMODULE'),
  ('cryptography.hazmat.backends.openssl.backend',
   '/usr/lib/python2.7/dist-packages/cryptography/hazmat/backends/openssl/backend.py',
   'PYMODULE'),
  ('cryptography.hazmat.primitives.ciphers.algorithms',
   '/usr/lib/python2.7/dist-packages/cryptography/hazmat/primitives/ciphers/algorithms.py',
   'PYMODULE'),
  ('cryptography.hazmat.primitives.asymmetric.padding',
   '/usr/lib/python2.7/dist-packages/cryptography/hazmat/primitives/asymmetric/padding.py',
   'PYMODULE'),
  ('cryptography.hazmat.backends.openssl.utils',
   '/usr/lib/python2.7/dist-packages/cryptography/hazmat/backends/openssl/utils.py',
   'PYMODULE'),
  ('cryptography.hazmat.backends.openssl.cmac',
   '/usr/lib/python2.7/dist-packages/cryptography/hazmat/backends/openssl/cmac.py',
   'PYMODULE'),
  ('cryptography.hazmat.backends.openssl.ec',
   '/usr/lib/python2.7/dist-packages/cryptography/hazmat/backends/openssl/ec.py',
   'PYMODULE'),
  ('cryptography.hazmat.backends.openssl.hmac',
   '/usr/lib/python2.7/dist-packages/cryptography/hazmat/backends/openssl/hmac.py',
   'PYMODULE'),
  ('cryptography.hazmat.backends.openssl.hashes',
   '/usr/lib/python2.7/dist-packages/cryptography/hazmat/backends/openssl/hashes.py',
   'PYMODULE'),
  ('cryptography.hazmat.backends',
   '/usr/lib/python2.7/dist-packages/cryptography/hazmat/backends/__init__.py',
   'PYMODULE'),
  ('cryptography.hazmat.backends.commoncrypto',
   '/usr/lib/python2.7/dist-packages/cryptography/hazmat/backends/commoncrypto/__init__.py',
   'PYMODULE'),
  ('cryptography.hazmat.backends.commoncrypto.backend',
   '/usr/lib/python2.7/dist-packages/cryptography/hazmat/backends/commoncrypto/backend.py',
   'PYMODULE'),
  ('cryptography.hazmat.bindings.commoncrypto.binding',
   '/usr/lib/python2.7/dist-packages/cryptography/hazmat/bindings/commoncrypto/binding.py',
   'PYMODULE'),
  ('cryptography.hazmat.bindings.commoncrypto',
   '/usr/lib/python2.7/dist-packages/cryptography/hazmat/bindings/commoncrypto/__init__.py',
   'PYMODULE'),
  ('cryptography.hazmat.backends.commoncrypto.hmac',
   '/usr/lib/python2.7/dist-packages/cryptography/hazmat/backends/commoncrypto/hmac.py',
   'PYMODULE'),
  ('cryptography.hazmat.backends.commoncrypto.hashes',
   '/usr/lib/python2.7/dist-packages/cryptography/hazmat/backends/commoncrypto/hashes.py',
   'PYMODULE'),
  ('cryptography.hazmat.backends.commoncrypto.ciphers',
   '/usr/lib/python2.7/dist-packages/cryptography/hazmat/backends/commoncrypto/ciphers.py',
   'PYMODULE'),
  ('cryptography.hazmat.backends.openssl.rsa',
   '/usr/lib/python2.7/dist-packages/cryptography/hazmat/backends/openssl/rsa.py',
   'PYMODULE'),
  ('cryptography.hazmat.backends.openssl.dsa',
   '/usr/lib/python2.7/dist-packages/cryptography/hazmat/backends/openssl/dsa.py',
   'PYMODULE'),
  ('cryptography.hazmat.backends.openssl.ciphers',
   '/usr/lib/python2.7/dist-packages/cryptography/hazmat/backends/openssl/ciphers.py',
   'PYMODULE'),
  ('cryptography.hazmat.backends.openssl',
   '/usr/lib/python2.7/dist-packages/cryptography/hazmat/backends/openssl/__init__.py',
   'PYMODULE'),
  ('cryptography.hazmat.backends.multibackend',
   '/usr/lib/python2.7/dist-packages/cryptography/hazmat/backends/multibackend.py',
   'PYMODULE'),
  ('cryptography.x509',
   '/usr/lib/python2.7/dist-packages/cryptography/x509/__init__.py',
   'PYMODULE'),
  ('cryptography.x509.name',
   '/usr/lib/python2.7/dist-packages/cryptography/x509/name.py',
   'PYMODULE'),
  ('cryptography.x509.general_name',
   '/usr/lib/python2.7/dist-packages/cryptography/x509/general_name.py',
   'PYMODULE'),
  ('cryptography.x509.extensions',
   '/usr/lib/python2.7/dist-packages/cryptography/x509/extensions.py',
   'PYMODULE'),
  ('pyasn1.type.univ',
   '/usr/lib/python2.7/dist-packages/pyasn1/type/univ.py',
   'PYMODULE'),
  ('pyasn1.error',
   '/usr/lib/python2.7/dist-packages/pyasn1/error.py',
   'PYMODULE'),
  ('pyasn1',
   '/usr/lib/python2.7/dist-packages/pyasn1/__init__.py',
   'PYMODULE'),
  ('pyasn1.debug',
   '/usr/lib/python2.7/dist-packages/pyasn1/debug.py',
   'PYMODULE'),
  ('pyasn1.compat.octets',
   '/usr/lib/python2.7/dist-packages/pyasn1/compat/octets.py',
   'PYMODULE'),
  ('pyasn1.compat',
   '/usr/lib/python2.7/dist-packages/pyasn1/compat/__init__.py',
   'PYMODULE'),
  ('pyasn1.codec.ber.eoo',
   '/usr/lib/python2.7/dist-packages/pyasn1/codec/ber/eoo.py',
   'PYMODULE'),
  ('pyasn1.codec.ber',
   '/usr/lib/python2.7/dist-packages/pyasn1/codec/ber/__init__.py',
   'PYMODULE'),
  ('pyasn1.codec.ber.decoder',
   '/usr/lib/python2.7/dist-packages/pyasn1/codec/ber/decoder.py',
   'PYMODULE'),
  ('pyasn1.type.useful',
   '/usr/lib/python2.7/dist-packages/pyasn1/type/useful.py',
   'PYMODULE'),
  ('pyasn1.type.char',
   '/usr/lib/python2.7/dist-packages/pyasn1/type/char.py',
   'PYMODULE'),
  ('pyasn1.codec',
   '/usr/lib/python2.7/dist-packages/pyasn1/codec/__init__.py',
   'PYMODULE'),
  ('pyasn1.type.tagmap',
   '/usr/lib/python2.7/dist-packages/pyasn1/type/tagmap.py',
   'PYMODULE'),
  ('pyasn1.type.namedval',
   '/usr/lib/python2.7/dist-packages/pyasn1/type/namedval.py',
   'PYMODULE'),
  ('pyasn1.type.constraint',
   '/usr/lib/python2.7/dist-packages/pyasn1/type/constraint.py',
   'PYMODULE'),
  ('pyasn1.type.error',
   '/usr/lib/python2.7/dist-packages/pyasn1/type/error.py',
   'PYMODULE'),
  ('pyasn1.type.tag',
   '/usr/lib/python2.7/dist-packages/pyasn1/type/tag.py',
   'PYMODULE'),
  ('pyasn1.type.base',
   '/usr/lib/python2.7/dist-packages/pyasn1/type/base.py',
   'PYMODULE'),
  ('pyasn1.type.namedtype',
   '/usr/lib/python2.7/dist-packages/pyasn1/type/namedtype.py',
   'PYMODULE'),
  ('pyasn1.type',
   '/usr/lib/python2.7/dist-packages/pyasn1/type/__init__.py',
   'PYMODULE'),
  ('pyasn1.codec.der.decoder',
   '/usr/lib/python2.7/dist-packages/pyasn1/codec/der/decoder.py',
   'PYMODULE'),
  ('pyasn1.codec.cer.decoder',
   '/usr/lib/python2.7/dist-packages/pyasn1/codec/cer/decoder.py',
   'PYMODULE'),
  ('pyasn1.codec.cer',
   '/usr/lib/python2.7/dist-packages/pyasn1/codec/cer/__init__.py',
   'PYMODULE'),
  ('pyasn1.codec.der',
   '/usr/lib/python2.7/dist-packages/pyasn1/codec/der/__init__.py',
   'PYMODULE'),
  ('cryptography.x509.base',
   '/usr/lib/python2.7/dist-packages/cryptography/x509/base.py',
   'PYMODULE'),
  ('cryptography.utils',
   '/usr/lib/python2.7/dist-packages/cryptography/utils.py',
   'PYMODULE'),
  ('cryptography.__about__',
   '/usr/lib/python2.7/dist-packages/cryptography/__about__.py',
   'PYMODULE'),
  ('urllib3.contrib.pyopenssl',
   '/home/liudong/.local/lib/python2.7/site-packages/urllib3/contrib/pyopenssl.py',
   'PYMODULE'),
  ('OpenSSL.crypto',
   '/usr/lib/python2.7/dist-packages/OpenSSL/crypto.py',
   'PYMODULE'),
  ('OpenSSL',
   '/usr/lib/python2.7/dist-packages/OpenSSL/__init__.py',
   'PYMODULE'),
  ('OpenSSL.version',
   '/usr/lib/python2.7/dist-packages/OpenSSL/version.py',
   'PYMODULE'),
  ('OpenSSL.rand',
   '/usr/lib/python2.7/dist-packages/OpenSSL/rand.py',
   'PYMODULE'),
  ('OpenSSL._util',
   '/usr/lib/python2.7/dist-packages/OpenSSL/_util.py',
   'PYMODULE'),
  ('urllib3.packages.backports.makefile',
   '/home/liudong/.local/lib/python2.7/site-packages/urllib3/packages/backports/makefile.py',
   'PYMODULE'),
  ('urllib3.packages.backports',
   '/home/liudong/.local/lib/python2.7/site-packages/urllib3/packages/backports/__init__.py',
   'PYMODULE'),
  ('OpenSSL.SSL',
   '/usr/lib/python2.7/dist-packages/OpenSSL/SSL.py',
   'PYMODULE'),
  ('urllib3.contrib',
   '/home/liudong/.local/lib/python2.7/site-packages/urllib3/contrib/__init__.py',
   'PYMODULE'),
  ('requests.exceptions',
   '/home/liudong/.local/lib/python2.7/site-packages/requests/exceptions.py',
   'PYMODULE'),
  ('chardet',
   '/home/liudong/.local/lib/python2.7/site-packages/chardet/__init__.py',
   'PYMODULE'),
  ('chardet.version',
   '/home/liudong/.local/lib/python2.7/site-packages/chardet/version.py',
   'PYMODULE'),
  ('chardet.universaldetector',
   '/home/liudong/.local/lib/python2.7/site-packages/chardet/universaldetector.py',
   'PYMODULE'),
  ('chardet.sbcsgroupprober',
   '/home/liudong/.local/lib/python2.7/site-packages/chardet/sbcsgroupprober.py',
   'PYMODULE'),
  ('chardet.langturkishmodel',
   '/home/liudong/.local/lib/python2.7/site-packages/chardet/langturkishmodel.py',
   'PYMODULE'),
  ('chardet.hebrewprober',
   '/home/liudong/.local/lib/python2.7/site-packages/chardet/hebrewprober.py',
   'PYMODULE'),
  ('chardet.charsetprober',
   '/home/liudong/.local/lib/python2.7/site-packages/chardet/charsetprober.py',
   'PYMODULE'),
  ('chardet.langhebrewmodel',
   '/home/liudong/.local/lib/python2.7/site-packages/chardet/langhebrewmodel.py',
   'PYMODULE'),
  ('chardet.langthaimodel',
   '/home/liudong/.local/lib/python2.7/site-packages/chardet/langthaimodel.py',
   'PYMODULE'),
  ('chardet.langbulgarianmodel',
   '/home/liudong/.local/lib/python2.7/site-packages/chardet/langbulgarianmodel.py',
   'PYMODULE'),
  ('chardet.langgreekmodel',
   '/home/liudong/.local/lib/python2.7/site-packages/chardet/langgreekmodel.py',
   'PYMODULE'),
  ('chardet.langcyrillicmodel',
   '/home/liudong/.local/lib/python2.7/site-packages/chardet/langcyrillicmodel.py',
   'PYMODULE'),
  ('chardet.sbcharsetprober',
   '/home/liudong/.local/lib/python2.7/site-packages/chardet/sbcharsetprober.py',
   'PYMODULE'),
  ('chardet.mbcsgroupprober',
   '/home/liudong/.local/lib/python2.7/site-packages/chardet/mbcsgroupprober.py',
   'PYMODULE'),
  ('chardet.euctwprober',
   '/home/liudong/.local/lib/python2.7/site-packages/chardet/euctwprober.py',
   'PYMODULE'),
  ('chardet.mbcssm',
   '/home/liudong/.local/lib/python2.7/site-packages/chardet/mbcssm.py',
   'PYMODULE'),
  ('chardet.chardistribution',
   '/home/liudong/.local/lib/python2.7/site-packages/chardet/chardistribution.py',
   'PYMODULE'),
  ('chardet.jisfreq',
   '/home/liudong/.local/lib/python2.7/site-packages/chardet/jisfreq.py',
   'PYMODULE'),
  ('chardet.big5freq',
   '/home/liudong/.local/lib/python2.7/site-packages/chardet/big5freq.py',
   'PYMODULE'),
  ('chardet.gb2312freq',
   '/home/liudong/.local/lib/python2.7/site-packages/chardet/gb2312freq.py',
   'PYMODULE'),
  ('chardet.euckrfreq',
   '/home/liudong/.local/lib/python2.7/site-packages/chardet/euckrfreq.py',
   'PYMODULE'),
  ('chardet.euctwfreq',
   '/home/liudong/.local/lib/python2.7/site-packages/chardet/euctwfreq.py',
   'PYMODULE'),
  ('chardet.codingstatemachine',
   '/home/liudong/.local/lib/python2.7/site-packages/chardet/codingstatemachine.py',
   'PYMODULE'),
  ('chardet.mbcharsetprober',
   '/home/liudong/.local/lib/python2.7/site-packages/chardet/mbcharsetprober.py',
   'PYMODULE'),
  ('chardet.big5prober',
   '/home/liudong/.local/lib/python2.7/site-packages/chardet/big5prober.py',
   'PYMODULE'),
  ('chardet.cp949prober',
   '/home/liudong/.local/lib/python2.7/site-packages/chardet/cp949prober.py',
   'PYMODULE'),
  ('chardet.euckrprober',
   '/home/liudong/.local/lib/python2.7/site-packages/chardet/euckrprober.py',
   'PYMODULE'),
  ('chardet.gb2312prober',
   '/home/liudong/.local/lib/python2.7/site-packages/chardet/gb2312prober.py',
   'PYMODULE'),
  ('chardet.eucjpprober',
   '/home/liudong/.local/lib/python2.7/site-packages/chardet/eucjpprober.py',
   'PYMODULE'),
  ('chardet.jpcntx',
   '/home/liudong/.local/lib/python2.7/site-packages/chardet/jpcntx.py',
   'PYMODULE'),
  ('chardet.sjisprober',
   '/home/liudong/.local/lib/python2.7/site-packages/chardet/sjisprober.py',
   'PYMODULE'),
  ('chardet.utf8prober',
   '/home/liudong/.local/lib/python2.7/site-packages/chardet/utf8prober.py',
   'PYMODULE'),
  ('chardet.latin1prober',
   '/home/liudong/.local/lib/python2.7/site-packages/chardet/latin1prober.py',
   'PYMODULE'),
  ('chardet.escprober',
   '/home/liudong/.local/lib/python2.7/site-packages/chardet/escprober.py',
   'PYMODULE'),
  ('chardet.escsm',
   '/home/liudong/.local/lib/python2.7/site-packages/chardet/escsm.py',
   'PYMODULE'),
  ('chardet.enums',
   '/home/liudong/.local/lib/python2.7/site-packages/chardet/enums.py',
   'PYMODULE'),
  ('chardet.charsetgroupprober',
   '/home/liudong/.local/lib/python2.7/site-packages/chardet/charsetgroupprober.py',
   'PYMODULE'),
  ('chardet.compat',
   '/home/liudong/.local/lib/python2.7/site-packages/chardet/compat.py',
   'PYMODULE'),
  ('urllib3',
   '/home/liudong/.local/lib/python2.7/site-packages/urllib3/__init__.py',
   'PYMODULE'),
  ('json', '/usr/lib/python2.7/json/__init__.py', 'PYMODULE'),
  ('json.encoder', '/usr/lib/python2.7/json/encoder.py', 'PYMODULE'),
  ('json.decoder', '/usr/lib/python2.7/json/decoder.py', 'PYMODULE'),
  ('json.scanner', '/usr/lib/python2.7/json/scanner.py', 'PYMODULE'),
  ('uuid', '/usr/lib/python2.7/uuid.py', 'PYMODULE'),
  ('ctypes.util', '/usr/lib/python2.7/ctypes/util.py', 'PYMODULE')],
 [('libz.so.1', '/lib/x86_64-linux-gnu/libz.so.1', 'BINARY'),
  ('readline',
   '/usr/lib/python2.7/lib-dynload/readline.x86_64-linux-gnu.so',
   'EXTENSION'),
  ('_hashlib',
   '/usr/lib/python2.7/lib-dynload/_hashlib.x86_64-linux-gnu.so',
   'EXTENSION'),
  ('_ctypes',
   '/usr/lib/python2.7/lib-dynload/_ctypes.x86_64-linux-gnu.so',
   'EXTENSION'),
  ('termios',
   '/usr/lib/python2.7/lib-dynload/termios.x86_64-linux-gnu.so',
   'EXTENSION'),
  ('_ssl',
   '/usr/lib/python2.7/lib-dynload/_ssl.x86_64-linux-gnu.so',
   'EXTENSION'),
  ('pyexpat',
   '/usr/lib/python2.7/lib-dynload/pyexpat.x86_64-linux-gnu.so',
   'EXTENSION'),
  ('bz2',
   '/usr/lib/python2.7/lib-dynload/bz2.x86_64-linux-gnu.so',
   'EXTENSION'),
  ('resource',
   '/usr/lib/python2.7/lib-dynload/resource.x86_64-linux-gnu.so',
   'EXTENSION'),
  ('_multibytecodec',
   '/usr/lib/python2.7/lib-dynload/_multibytecodec.x86_64-linux-gnu.so',
   'EXTENSION'),
  ('_codecs_cn',
   '/usr/lib/python2.7/lib-dynload/_codecs_cn.x86_64-linux-gnu.so',
   'EXTENSION'),
  ('_codecs_jp',
   '/usr/lib/python2.7/lib-dynload/_codecs_jp.x86_64-linux-gnu.so',
   'EXTENSION'),
  ('_codecs_hk',
   '/usr/lib/python2.7/lib-dynload/_codecs_hk.x86_64-linux-gnu.so',
   'EXTENSION'),
  ('_codecs_tw',
   '/usr/lib/python2.7/lib-dynload/_codecs_tw.x86_64-linux-gnu.so',
   'EXTENSION'),
  ('_codecs_iso2022',
   '/usr/lib/python2.7/lib-dynload/_codecs_iso2022.x86_64-linux-gnu.so',
   'EXTENSION'),
  ('_codecs_kr',
   '/usr/lib/python2.7/lib-dynload/_codecs_kr.x86_64-linux-gnu.so',
   'EXTENSION'),
  ('Crypto.Util._counter',
   '/usr/lib/python2.7/dist-packages/Crypto/Util/_counter.x86_64-linux-gnu.so',
   'EXTENSION'),
  ('Crypto.Cipher._AES',
   '/usr/lib/python2.7/dist-packages/Crypto/Cipher/_AES.x86_64-linux-gnu.so',
   'EXTENSION'),
  ('Crypto.Cipher._DES',
   '/usr/lib/python2.7/dist-packages/Crypto/Cipher/_DES.x86_64-linux-gnu.so',
   'EXTENSION'),
  ('Crypto.Cipher._DES3',
   '/usr/lib/python2.7/dist-packages/Crypto/Cipher/_DES3.x86_64-linux-gnu.so',
   'EXTENSION'),
  ('Crypto.PublicKey._fastmath',
   '/usr/lib/python2.7/dist-packages/Crypto/PublicKey/_fastmath.x86_64-linux-gnu.so',
   'EXTENSION'),
  ('Crypto.Hash._SHA256',
   '/usr/lib/python2.7/dist-packages/Crypto/Hash/_SHA256.x86_64-linux-gnu.so',
   'EXTENSION'),
  ('Crypto.Util.strxor',
   '/usr/lib/python2.7/dist-packages/Crypto/Util/strxor.x86_64-linux-gnu.so',
   'EXTENSION'),
  ('_cffi_backend',
   '/usr/lib/python2.7/dist-packages/_cffi_backend.x86_64-linux-gnu.so',
   'EXTENSION'),
  ('cryptography.hazmat.bindings._openssl',
   '/usr/lib/python2.7/dist-packages/cryptography/hazmat/bindings/_openssl.x86_64-linux-gnu.so',
   'EXTENSION'),
  ('cryptography.hazmat.bindings._constant_time',
   '/usr/lib/python2.7/dist-packages/cryptography/hazmat/bindings/_constant_time.x86_64-linux-gnu.so',
   'EXTENSION'),
  ('_json',
   '/usr/lib/python2.7/lib-dynload/_json.x86_64-linux-gnu.so',
   'EXTENSION'),
  ('libreadline.so.6', '/lib/x86_64-linux-gnu/libreadline.so.6', 'BINARY'),
  ('libtinfo.so.5', '/lib/x86_64-linux-gnu/libtinfo.so.5', 'BINARY'),
  ('libcrypto.so.1.0.0',
   '/lib/x86_64-linux-gnu/libcrypto.so.1.0.0',
   'BINARY'),
  ('libffi.so.6', '/usr/lib/x86_64-linux-gnu/libffi.so.6', 'BINARY'),
  ('libssl.so.1.0.0', '/lib/x86_64-linux-gnu/libssl.so.1.0.0', 'BINARY'),
  ('libexpat.so.1', '/lib/x86_64-linux-gnu/libexpat.so.1', 'BINARY'),
  ('libbz2.so.1.0', '/lib/x86_64-linux-gnu/libbz2.so.1.0', 'BINARY'),
  ('libgmp.so.10', '/usr/lib/x86_64-linux-gnu/libgmp.so.10', 'BINARY'),
  ('libpython2.7.so.1.0',
   '/usr/lib/x86_64-linux-gnu/libpython2.7.so.1.0',
   'BINARY')],
 [],
 [],
 [('cryptography-1.2.3-py2.7.egg-info/requires.txt',
   '/usr/lib/python2.7/dist-packages/cryptography-1.2.3.egg-info/requires.txt',
   'DATA'),
  ('lib/python2.7/config-x86_64-linux-gnu/Makefile',
   '/usr/lib/python2.7/config-x86_64-linux-gnu/Makefile',
   'DATA'),
  ('cryptography-1.2.3-py2.7.egg-info/top_level.txt',
   '/usr/lib/python2.7/dist-packages/cryptography-1.2.3.egg-info/top_level.txt',
   'DATA'),
  ('include/python2.7/pyconfig.h',
   '/usr/include/python2.7/pyconfig.h',
   'DATA'),
  ('certifi/cacert.pem',
   '/home/liudong/.local/lib/python2.7/site-packages/certifi/cacert.pem',
   'DATA'),
  ('cryptography-1.2.3-py2.7.egg-info/PKG-INFO',
   '/usr/lib/python2.7/dist-packages/cryptography-1.2.3.egg-info/PKG-INFO',
   'DATA'),
  ('cryptography-1.2.3-py2.7.egg-info/entry_points.txt',
   '/usr/lib/python2.7/dist-packages/cryptography-1.2.3.egg-info/entry_points.txt',
   'DATA'),
  ('cryptography-1.2.3-py2.7.egg-info/not-zip-safe',
   '/usr/lib/python2.7/dist-packages/cryptography-1.2.3.egg-info/not-zip-safe',
   'DATA'),
  ('cryptography-1.2.3-py2.7.egg-info/dependency_links.txt',
   '/usr/lib/python2.7/dist-packages/cryptography-1.2.3.egg-info/dependency_links.txt',
   'DATA')],
 [])
