('/home/liudong/workspace/python/guazi/dist/importAsset_liudong',
 True,
 False,
 False,
 None,
 None,
 False,
 False,
 None,
 True,
 'importAsset_liudong.pkg',
 [('PYZ-00.pyz',
   '/home/liudong/workspace/python/guazi/build/importAsset_liudong/PYZ-00.pyz',
   'PYZ'),
  ('struct', '/usr/lib/python2.7/struct.pyc', 'PYMODULE'),
  ('pyimod01_os_path',
   '/home/liudong/.local/lib/python2.7/site-packages/PyInstaller/loader/pyimod01_os_path.pyc',
   'PYMODULE'),
  ('pyimod02_archive',
   '/home/liudong/.local/lib/python2.7/site-packages/PyInstaller/loader/pyimod02_archive.pyc',
   'PYMODULE'),
  ('pyimod03_importers',
   '/home/liudong/.local/lib/python2.7/site-packages/PyInstaller/loader/pyimod03_importers.pyc',
   'PYMODULE'),
  ('pyiboot01_bootstrap',
   '/home/liudong/.local/lib/python2.7/site-packages/PyInstaller/loader/pyiboot01_bootstrap.py',
   'PYSOURCE'),
  ('pyi_rth_pkgres',
   '/home/liudong/.local/lib/python2.7/site-packages/PyInstaller/loader/rthooks/pyi_rth_pkgres.py',
   'PYSOURCE'),
  ('importAsset_liudong',
   '/home/liudong/workspace/python/guazi/importAsset_liudong.py',
   'PYSOURCE'),
  ('libz.so.1', '/lib/x86_64-linux-gnu/libz.so.1', 'BINARY'),
  ('readline',
   '/usr/lib/python2.7/lib-dynload/readline.x86_64-linux-gnu.so',
   'EXTENSION'),
  ('_hashlib',
   '/usr/lib/python2.7/lib-dynload/_hashlib.x86_64-linux-gnu.so',
   'EXTENSION'),
  ('_ctypes',
   '/usr/lib/python2.7/lib-dynload/_ctypes.x86_64-linux-gnu.so',
   'EXTENSION'),
  ('termios',
   '/usr/lib/python2.7/lib-dynload/termios.x86_64-linux-gnu.so',
   'EXTENSION'),
  ('_ssl',
   '/usr/lib/python2.7/lib-dynload/_ssl.x86_64-linux-gnu.so',
   'EXTENSION'),
  ('pyexpat',
   '/usr/lib/python2.7/lib-dynload/pyexpat.x86_64-linux-gnu.so',
   'EXTENSION'),
  ('bz2',
   '/usr/lib/python2.7/lib-dynload/bz2.x86_64-linux-gnu.so',
   'EXTENSION'),
  ('resource',
   '/usr/lib/python2.7/lib-dynload/resource.x86_64-linux-gnu.so',
   'EXTENSION'),
  ('_multibytecodec',
   '/usr/lib/python2.7/lib-dynload/_multibytecodec.x86_64-linux-gnu.so',
   'EXTENSION'),
  ('_codecs_cn',
   '/usr/lib/python2.7/lib-dynload/_codecs_cn.x86_64-linux-gnu.so',
   'EXTENSION'),
  ('_codecs_jp',
   '/usr/lib/python2.7/lib-dynload/_codecs_jp.x86_64-linux-gnu.so',
   'EXTENSION'),
  ('_codecs_hk',
   '/usr/lib/python2.7/lib-dynload/_codecs_hk.x86_64-linux-gnu.so',
   'EXTENSION'),
  ('_codecs_tw',
   '/usr/lib/python2.7/lib-dynload/_codecs_tw.x86_64-linux-gnu.so',
   'EXTENSION'),
  ('_codecs_iso2022',
   '/usr/lib/python2.7/lib-dynload/_codecs_iso2022.x86_64-linux-gnu.so',
   'EXTENSION'),
  ('_codecs_kr',
   '/usr/lib/python2.7/lib-dynload/_codecs_kr.x86_64-linux-gnu.so',
   'EXTENSION'),
  ('Crypto.Util._counter',
   '/usr/lib/python2.7/dist-packages/Crypto/Util/_counter.x86_64-linux-gnu.so',
   'EXTENSION'),
  ('Crypto.Cipher._AES',
   '/usr/lib/python2.7/dist-packages/Crypto/Cipher/_AES.x86_64-linux-gnu.so',
   'EXTENSION'),
  ('Crypto.Cipher._DES',
   '/usr/lib/python2.7/dist-packages/Crypto/Cipher/_DES.x86_64-linux-gnu.so',
   'EXTENSION'),
  ('Crypto.Cipher._DES3',
   '/usr/lib/python2.7/dist-packages/Crypto/Cipher/_DES3.x86_64-linux-gnu.so',
   'EXTENSION'),
  ('Crypto.PublicKey._fastmath',
   '/usr/lib/python2.7/dist-packages/Crypto/PublicKey/_fastmath.x86_64-linux-gnu.so',
   'EXTENSION'),
  ('Crypto.Hash._SHA256',
   '/usr/lib/python2.7/dist-packages/Crypto/Hash/_SHA256.x86_64-linux-gnu.so',
   'EXTENSION'),
  ('Crypto.Util.strxor',
   '/usr/lib/python2.7/dist-packages/Crypto/Util/strxor.x86_64-linux-gnu.so',
   'EXTENSION'),
  ('_cffi_backend',
   '/usr/lib/python2.7/dist-packages/_cffi_backend.x86_64-linux-gnu.so',
   'EXTENSION'),
  ('cryptography.hazmat.bindings._openssl',
   '/usr/lib/python2.7/dist-packages/cryptography/hazmat/bindings/_openssl.x86_64-linux-gnu.so',
   'EXTENSION'),
  ('cryptography.hazmat.bindings._constant_time',
   '/usr/lib/python2.7/dist-packages/cryptography/hazmat/bindings/_constant_time.x86_64-linux-gnu.so',
   'EXTENSION'),
  ('_json',
   '/usr/lib/python2.7/lib-dynload/_json.x86_64-linux-gnu.so',
   'EXTENSION'),
  ('libreadline.so.6', '/lib/x86_64-linux-gnu/libreadline.so.6', 'BINARY'),
  ('libtinfo.so.5', '/lib/x86_64-linux-gnu/libtinfo.so.5', 'BINARY'),
  ('libcrypto.so.1.0.0',
   '/lib/x86_64-linux-gnu/libcrypto.so.1.0.0',
   'BINARY'),
  ('libffi.so.6', '/usr/lib/x86_64-linux-gnu/libffi.so.6', 'BINARY'),
  ('libssl.so.1.0.0', '/lib/x86_64-linux-gnu/libssl.so.1.0.0', 'BINARY'),
  ('libexpat.so.1', '/lib/x86_64-linux-gnu/libexpat.so.1', 'BINARY'),
  ('libbz2.so.1.0', '/lib/x86_64-linux-gnu/libbz2.so.1.0', 'BINARY'),
  ('libgmp.so.10', '/usr/lib/x86_64-linux-gnu/libgmp.so.10', 'BINARY'),
  ('libpython2.7.so.1.0',
   '/usr/lib/x86_64-linux-gnu/libpython2.7.so.1.0',
   'BINARY'),
  ('cryptography-1.2.3-py2.7.egg-info/requires.txt',
   '/usr/lib/python2.7/dist-packages/cryptography-1.2.3.egg-info/requires.txt',
   'DATA'),
  ('lib/python2.7/config-x86_64-linux-gnu/Makefile',
   '/usr/lib/python2.7/config-x86_64-linux-gnu/Makefile',
   'DATA'),
  ('cryptography-1.2.3-py2.7.egg-info/top_level.txt',
   '/usr/lib/python2.7/dist-packages/cryptography-1.2.3.egg-info/top_level.txt',
   'DATA'),
  ('include/python2.7/pyconfig.h',
   '/usr/include/python2.7/pyconfig.h',
   'DATA'),
  ('certifi/cacert.pem',
   '/home/liudong/.local/lib/python2.7/site-packages/certifi/cacert.pem',
   'DATA'),
  ('cryptography-1.2.3-py2.7.egg-info/PKG-INFO',
   '/usr/lib/python2.7/dist-packages/cryptography-1.2.3.egg-info/PKG-INFO',
   'DATA'),
  ('cryptography-1.2.3-py2.7.egg-info/entry_points.txt',
   '/usr/lib/python2.7/dist-packages/cryptography-1.2.3.egg-info/entry_points.txt',
   'DATA'),
  ('cryptography-1.2.3-py2.7.egg-info/not-zip-safe',
   '/usr/lib/python2.7/dist-packages/cryptography-1.2.3.egg-info/not-zip-safe',
   'DATA'),
  ('cryptography-1.2.3-py2.7.egg-info/dependency_links.txt',
   '/usr/lib/python2.7/dist-packages/cryptography-1.2.3.egg-info/dependency_links.txt',
   'DATA')],
 [],
 False,
 False,
 1547196992,
 [('run',
   '/home/liudong/.local/lib/python2.7/site-packages/PyInstaller/bootloader/Linux-64bit/run',
   'EXECUTABLE')])
